<?xml version="1.0" encoding="utf-8"?>
<!-- Generator: Adobe Illustrator 17.0.0, SVG Export Plug-In . SVG Version: 6.00 Build 0)  -->
<!DOCTYPE svg PUBLIC "-//W3C//DTD SVG 1.1//EN" "http://www.w3.org/Graphics/SVG/1.1/DTD/svg11.dtd">
<svg version="1.1" id="Layer_1" xmlns="http://www.w3.org/2000/svg" xmlns:xlink="http://www.w3.org/1999/xlink" x="0px" y="0px"
	 width="502.9490051px" height="137.8659973px" viewBox="0 0 502.9490051 137.8659973"
	 enable-background="new 0 0 502.9490051 137.8659973" xml:space="preserve">
<g id="freezone">
</g>
<g id="CMYK_Colours" display="none">
	<rect x="-100.5899963" y="-188.6509705" display="inline" fill="#FF1323" width="62.3149986" height="100.6849976"/>
	<rect x="-28.2740021" y="-188.6509705" display="inline" fill="#0082C2" width="62.3150024" height="100.6849976"/>
	<rect x="44.041996" y="-188.6509705" display="inline" width="62.3149948" height="100.6849976"/>
	<g display="inline">
		<rect x="116.3580017" y="-188.6509705" fill="#FFFFFF" width="62.3150024" height="100.6849976"/>
	</g>
	<rect x="188.673996" y="-188.6509705" display="inline" fill="#999999" width="62.3150024" height="100.6849976"/>
	<rect x="260.9899902" y="-188.6509705" display="inline" fill="#CCCCCC" width="62.3150024" height="100.6849976"/>
	<rect x="333.3060303" y="-188.6509705" display="inline" fill="#F5EE00" width="62.3150024" height="100.6849976"/>
</g>
<g id="LOGO">
	<g>
		<path d="M477.1080017,21.2840004c1.4790039,0.8500004,3.0809937,1.2740002,4.8059998,1.2740002
			c1.7160034,0,3.3129883-0.427,4.7940063-1.2800007c1.4790039-0.8540001,2.6459961-2.0170002,3.5-3.4869995
			c0.8540039-1.4710007,1.2799988-3.0640001,1.2799988-4.7810001c0-1.7069998-0.4289856-3.2989998-1.2869873-4.7740002
			s-2.0270081-2.6420002-3.506012-3.5c-1.480011-0.8569999-3.072998-1.2869999-4.7810059-1.2869999
			c-1.7170105,0-3.3139954,0.428-4.7940063,1.2809999s-2.6470032,2.0190001-3.506012,3.4929996
			c-0.8580017,1.4759998-1.2869873,3.0710001-1.2869873,4.7870007c0,1.717,0.427002,3.3120003,1.2810059,4.7870007
			C474.4609985,19.2719994,475.6279907,20.434,477.1080017,21.2840004z M476.2770081,7.3720002
			c1.5599976-1.5599999,3.4379883-2.3399997,5.6369934-2.3399997c2.1889954,0,4.0639954,0.7799997,5.6239929,2.3400002
			c1.5599976,1.5609999,2.3399963,3.4390001,2.3399963,5.6370001s-0.7780151,4.0749989-2.3330078,5.6310005
			c-1.5559998,1.5559998-3.4330139,2.3330002-5.631012,2.3330002c-2.2059937,0-4.0880127-0.7749996-5.6440125-2.3269997
			c-1.5549927-1.5510006-2.3330078-3.4300003-2.3330078-5.6370001
			C473.9370117,10.8120003,474.7170105,8.9329996,476.2770081,7.3720002z"/>
		<path d="M479.7449951,13.7700005h0.9890137c0.6350098,0,1.1419983,0.1719999,1.5220032,0.5139999
			c0.3800049,0.3430004,0.8959961,1.0930004,1.5469971,2.2509995l0.8999939,1.6100006h2.0280151l-1.2420044-2.0030003
			c-0.5239868-0.8369999-0.9570007-1.4390001-1.2999878-1.8079996c-0.3429871-0.3669996-0.7080078-0.632-1.0969849-0.7919998
			c0.8619995-0.0670004,1.5669861-0.3719997,2.1170044-0.9130001s0.8240051-1.2049999,0.8240051-1.9910002
			c0-0.5240002-0.1560059-1.0190001-0.4689941-1.4829998c-0.3129883-0.4650002-0.7290039-0.7969999-1.2489929-0.9960003
			c-0.5209961-0.198-1.4100037-0.2979999-2.6700134-0.2979999h-3.5629883v10.2840004h1.6610107v-4.375H479.7449951z
			 M479.7449951,9.2559996h1.9020081c0.9729919,0,1.6499939,0.1140003,2.0350037,0.342
			C484.0670166,9.8269997,484.2590027,10.224,484.2590027,10.79c0,0.5410004-0.197998,0.9370003-0.5960083,1.1859999
			c-0.3970032,0.25-1.0270081,0.3739996-1.8900146,0.3739996h-2.0289917V9.2559996H479.7449951z"/>
	</g>
	<g>
		<path fill="#0082C2" d="M36.7220001,30.7000008c-11.6780014,0-23.2290001,9.0460014-26.2889996,20.6030006L0.76,82.8570023
			c-1.694,6.3840027-0.524,12.7829971,3.2019999,17.5449982c3.5749998,4.5559998,9.177,6.9440002,15.3950005,6.9440002H247.79599
			c-0.2089996-4.5059967,0.3399963-9.3509979,1.8179932-14.0500031l17.4880066-56.7579994
			c0.625-2.0009995,1.428009-3.9360008,2.3160095-5.8390007H36.7220001V30.7000008z"/>
	</g>
	<path fill="#0082C2" d="M467.9849854,30.7000008c0.2090149,4.5740013-0.131012,8.9640007-1.6270142,13.7410011
		L449.6000061,99.947998c-0.7969971,2.538002-1.9070129,5.0110016-3.1059875,7.3990021h3.1740112h13.4660034
		c11.9419861,0,26.6740112-9.4889984,29.7990112-21.2939987l9.2430115-30.1609993
		c1.723999-6.519001,0.5400085-13.031002-3.2569885-17.8780022c-3.6440125-4.6450005-9.3609924-7.3129997-15.6950073-7.3129997
		h-15.2390747V30.7000008z"/>
	<g>
		<path d="M469.980011,31.3250008c-0.3070068-6.6819992-2.3590088-12.9469986-6.17099-18.1369991
			C457.6579895,4.8080001,446.2619934,0,434.8410034,0H315.5270081c-19.0480042,0-38.5299988,13.3579998-46.9360046,31.3250008
			c-0.8880005,1.9020004-1.6919861,3.8380013-2.3160095,5.8390007l-17.2350006,56.0940018
			c-1.4779968,4.6989975-2.0509949,9.3899994-1.8419952,13.8960037c0.3119965,6.5410004,2.3269958,12.6699982,6.0630035,17.7579956
			c6.0479889,8.2339935,15.9399872,12.9539948,27.1509857,12.9539948h112.2550049l7.3380127-0.098999
			c18.9700012,0,39.6950073-12.9609985,48.6329956-30.612999c1.1990051-2.3880005,2.2319946-4.8539963,3.0289917-7.3919983
			l16.4330139-54.3209991C469.5969849,40.6640015,470.1889954,35.8989983,469.980011,31.3250008z"/>
	</g>
	<g>
		<path fill="#FF1323" d="M362.0480042,40.6730003h-54.5840149c-0.2139893,0-0.4039917,0.1389999-0.4679871,0.3429985
			L289.625,96.5529938c-0.098999,0.3160019,0.1369934,0.6380005,0.4679871,0.6380005h26.0249939
			c0.2139893,0,0.4039917-0.1389999,0.4679871-0.3440018l4.7739868-15.6930008
			c0.098999-0.3160019-0.1369934-0.637001-0.4679871-0.637001h-11.4819946c-0.3309937,0-0.5669861-0.3209991-0.4679871-0.637001
			l7.071991-21.9239998c0.0639954-0.2039986,0.2539978-0.3429985,0.4679871-0.3429985h39.9500122
			c0.3309937,0,0.5669861,0.3219986,0.4679871,0.6380005L345.032959,96.8739929
			c-4.9219971,15.6459961-20.3359985,28.4580002-35.9949951,28.4580002h-28.4530029
			c-15.6530151,0-24.4339905-12.8120041-19.5169983-28.4580002l17.8899841-56.9189987
			c4.9169922-15.6529999,21.4589844-27.3470001,37.105011-27.3470001h54.6370544
			c0.3309937,0,0.5669861,0.3219995,0.4679871,0.6370001l-8.651001,27.0859985
			C362.4519958,40.5330009,362.2630005,40.6730003,362.0480042,40.6730003z"/>
		<path fill="#FF1323" d="M436.5809937,12.5349998h-26.1809998c-16.1109924,0-33.0599976,11.8839989-38.1139832,27.9910011
			l-17.0429993,55.4109955c-5.0580139,16.0999985,3.6149902,29.2870026,19.730011,29.2870026h26.1870117
			c16.0960083,0,33.855011-13.2700043,38.9150085-29.3700027l16.8280029-55.1870003
			C461.9530029,24.5599995,452.6830139,12.5349998,436.5809937,12.5349998z M410.6719971,97.2549973h-26.7829895
			c-0.3309937,0-0.5669861-0.3209991-0.4679871-0.6360016l17.4140015-55.6629982
			c0.0639954-0.2050018,0.2539978-0.3450012,0.4679871-0.3450012h26.5710144c0.3309937,0,0.5669861,0.3209991,0.4679871,0.6360016
			l-17.2019958,55.6630058C411.0759888,97.1149979,410.8859863,97.2549973,410.6719971,97.2549973z"/>
	</g>
	<g>
		<path fill="#FFFFFF" d="M170.8339996,91.5530014c-0.0639954,0.2070007-0.2559967,0.3470001-0.4720001,0.3479996
			l-10.477005,0.0159988c-0.3309937,0-0.5670013-0.3209991-0.4680023-0.637001l3.125-10.1520004
			c0.0970001-0.3089981-0.1300049-0.6149979-0.4530029-0.6340027c-5.878006-0.3410034-9.2180023-5.461998-7.3070068-11.5289993
			l6.8849945-22.5130005c0.0639954-0.2039986,0.2539978-0.3429985,0.4680023-0.3429985h10.3930054
			c0.3309937,0,0.5690002,0.3170013,0.4689941,0.6329994c-0.9620056,3.0509987-6.0839996,19.7900009-6.7919922,22.3519974
			c1.2189941,0,9.3439941,0,11.5549927,0c0.7440033-2.4909973,6.201004-20.2070007,6.9649963-22.6389999
			c0.0650024-0.2060013,0.2559967-0.3460007,0.4720001-0.3460007h10.2460022c0.3339996,0,0.572998,0.3250008,0.4720001,0.644001
			l-6.8470001,22.2120018c-1.9409943,6.1699982-8.2870026,11.2659988-14.4779968,11.451004
			c-0.2089996,0.0059967-0.3899994,0.1389999-0.4519958,0.3389969L170.8339996,91.5530014z"/>
		<path fill="#FFFFFF" d="M226.6990051,57.4550018c-6.2919922,0-13.0429993,5.1459999-15.0200043,11.4309998l-6.8059998,22.4469986
			c-0.098999,0.3160019,0.1369934,0.6380005,0.4680023,0.6380005h10.4120026c0.2140045,0,0.4019928-0.1330032,0.4660034-0.336998
			c0.7559967-2.4069977,5.7769928-18.6869965,7.0180054-22.5100021c2.2109985,0,8.2230072-0.0049973,11.3070068-0.0230026
			c-1.5240021,4.8389969-5.8419952,19.1869965-6.8040009,22.237999c-0.1000061,0.3160019,0.1380005,0.6330032,0.4689941,0.6330032
			h10.6430054c0.2140045,0,0.404007-0.1389999,0.4680023-0.3430023l6.9109955-22.7409973
			c1.9109955-6.0670013-1.3130035-11.0719986-7.1909943-11.413002
			C238.7180023,57.4550018,226.6990051,57.4550018,226.6990051,57.4550018z"/>
		<path fill="#FFFFFF" d="M144.0820007,46.1049995h-11.8300018c-6.2900009,0-13.0429993,5.1520004-15.0230026,11.4340019
			l-10.3040009,33.6580048c-0.098999,0.3160019,0.137001,0.6380005,0.4680023,0.6380005h10.4120026
			c0.211998,0,0.3990021-0.1360016,0.4660034-0.336998l4.2580032-13.3570023
			c0.0680008-0.1989975,0.2539978-0.3320007,0.4639969-0.3320007h10.6050034c0.3240051,0,0.5599976,0.3089981,0.4730072,0.6220016
			l-4.0099945,12.7699966c-0.095993,0.3150024,0.1399994,0.6340027,0.4689941,0.6340027l10.4810028,0.012001
			c0.2140045,0,0.404007-0.1389999,0.4680023-0.3440018l10.4400024-33.9650002
			C153.8970032,51.2560005,150.371994,46.1080017,144.0820007,46.1049995z M136.8159943,69.0800018h-11.4840012
			l3.5400009-11.6889992h11.5570068L136.8159943,69.0800018z"/>
		<path fill="#FFFFFF" d="M63.1879997,46.1049995H40.3779984c-0.2140007,0-0.4039993,0.1389999-0.4679985,0.3440018
			L26.1650009,91.1969986C26.066,91.5130005,26.302,91.8349991,26.6330013,91.8349991h10.3949986
			c0.2159996,0,0.4080009-0.1409988,0.4720001-0.3470001l3.375-10.7519989
			c0.0649986-0.2060013,0.2560005-0.3470001,0.4720001-0.3470001h11.0670013c6.288002,0,13.048996-5.1389999,15.0230026-11.4240036
			l3.5889969-11.4259987C73.0019989,51.2560005,69.473999,46.1049995,63.1879997,46.1049995z M56.0579987,69.1149979H44.5740013
			l3.5400009-11.6889992h11.5559959L56.0579987,69.1149979z"/>
		<polygon fill="#FFFFFF" points="211.720993,59.5270004 198.5890045,59.5270004 202.6369934,46.1599998 215.852005,46.1599998 		
			"/>
		<path fill="#FFFFFF" d="M66.0780029,91.9729996l14.1319962-45.5509987
			c0.064003-0.2070007,0.2559967-0.3479996,0.4729996-0.3479996h10.4400024c0.3330002,0,0.5709991,0.3209991,0.473999,0.6389999
			L81.5270004,79.802002C81.4300003,80.1200027,81.6679993,80.4410019,82,80.4410019h10.0439987
			c0.2149963,0,0.4059982-0.1389999,0.4720001-0.3450012l3.4250031-10.7330017
			c0.0660019-0.2050018,0.2559967-0.3450012,0.4720001-0.3450012h10.4379959c0.3339996,0,0.572998,0.3249969,0.4720001,0.6439972
			l-6.9029999,21.9639969c-0.0650024,0.2060013-0.2559967,0.3470001-0.4720001,0.3470001H65.8970032
			C65.8970032,91.9729919,66.0780029,91.9729919,66.0780029,91.9729996z"/>
	</g>
</g>
</svg>
