<?xml version="1.0" encoding="utf-8"?>
<!-- Generator: Adobe Illustrator 25.0.1, SVG Export Plug-In . SVG Version: 6.00 Build 0)  -->
<svg version="1.1" xmlns="http://www.w3.org/2000/svg" xmlns:xlink="http://www.w3.org/1999/xlink" x="0px" y="0px"
	 viewBox="0 0 24 24" style="enable-background:new 0 0 24 24;" xml:space="preserve">
<style type="text/css">
	.st0{fill:none;}
	.st1{clip-path:url(#SVGID_2_);}
	.st2{fill:none;stroke:#000000;stroke-width:0.25;stroke-miterlimit:10;}
	.st3{opacity:0.4;}
	.st4{clip-path:url(#SVGID_4_);fill:none;stroke:#000000;stroke-width:0.25;stroke-miterlimit:10;}
	.st5{clip-path:url(#SVGID_4_);}
	.st6{display:none;}
	.st7{display:inline;opacity:0.2;}
	.st8{display:inline;}
</style>
<symbol  id="material_x5F_system_x5F_icon_x5F_border" viewBox="0 -48 48 48">
	<rect y="-48" class="st0" width="48" height="48"/>
</symbol>
<symbol  id="material_x5F_system_x5F_icon_x5F_grid" viewBox="0 -48 48 48">
	<g>
		<defs>
			<rect id="SVGID_1_" x="0" y="-48" width="48" height="48"/>
		</defs>
		<clipPath id="SVGID_2_">
			<use xlink:href="#SVGID_1_"  style="overflow:visible;"/>
		</clipPath>
		<g class="st1">
			<g>
				<line class="st2" x1="2" y1="-48" x2="2" y2="0"/>
				<line class="st2" x1="4" y1="-48" x2="4" y2="0"/>
				<line class="st2" x1="6" y1="-48" x2="6" y2="0"/>
				<line class="st2" x1="8" y1="-48" x2="8" y2="0"/>
				<line class="st2" x1="10" y1="-48" x2="10" y2="0"/>
				<line class="st2" x1="12" y1="-48" x2="12" y2="0"/>
				<line class="st2" x1="14" y1="-48" x2="14" y2="0"/>
				<line class="st2" x1="16" y1="-48" x2="16" y2="0"/>
				<line class="st2" x1="18" y1="-48" x2="18" y2="0"/>
				<line class="st2" x1="20" y1="-48" x2="20" y2="0"/>
				<line class="st2" x1="22" y1="-48" x2="22" y2="0"/>
				<line class="st2" x1="24" y1="-48" x2="24" y2="0"/>
				<line class="st2" x1="26" y1="-48" x2="26" y2="0"/>
				<line class="st2" x1="28" y1="-48" x2="28" y2="0"/>
				<line class="st2" x1="30" y1="-48" x2="30" y2="0"/>
				<line class="st2" x1="32" y1="-48" x2="32" y2="0"/>
				<line class="st2" x1="34" y1="-48" x2="34" y2="0"/>
				<line class="st2" x1="36" y1="-48" x2="36" y2="0"/>
				<line class="st2" x1="38" y1="-48" x2="38" y2="0"/>
				<line class="st2" x1="40" y1="-48" x2="40" y2="0"/>
				<line class="st2" x1="42" y1="-48" x2="42" y2="0"/>
				<line class="st2" x1="44" y1="-48" x2="44" y2="0"/>
				<line class="st2" x1="46" y1="-48" x2="46" y2="0"/>
			</g>
			<g>
				<line class="st2" x1="0" y1="-2" x2="48" y2="-2"/>
				<line class="st2" x1="0" y1="-4" x2="48" y2="-4"/>
				<line class="st2" x1="0" y1="-6" x2="48" y2="-6"/>
				<line class="st2" x1="0" y1="-8" x2="48" y2="-8"/>
				<line class="st2" x1="0" y1="-10" x2="48" y2="-10"/>
				<line class="st2" x1="0" y1="-12" x2="48" y2="-12"/>
				<line class="st2" x1="0" y1="-14" x2="48" y2="-14"/>
				<line class="st2" x1="0" y1="-16" x2="48" y2="-16"/>
				<line class="st2" x1="0" y1="-18" x2="48" y2="-18"/>
				<line class="st2" x1="0" y1="-20" x2="48" y2="-20"/>
				<line class="st2" x1="0" y1="-22" x2="48" y2="-22"/>
				<line class="st2" x1="0" y1="-24" x2="48" y2="-24"/>
				<line class="st2" x1="0" y1="-26" x2="48" y2="-26"/>
				<line class="st2" x1="0" y1="-28" x2="48" y2="-28"/>
				<line class="st2" x1="0" y1="-30" x2="48" y2="-30"/>
				<line class="st2" x1="0" y1="-32" x2="48" y2="-32"/>
				<line class="st2" x1="0" y1="-34" x2="48" y2="-34"/>
				<line class="st2" x1="0" y1="-36" x2="48" y2="-36"/>
				<line class="st2" x1="0" y1="-38" x2="48" y2="-38"/>
				<line class="st2" x1="0" y1="-40" x2="48" y2="-40"/>
				<line class="st2" x1="0" y1="-42" x2="48" y2="-42"/>
				<line class="st2" x1="0" y1="-44" x2="48" y2="-44"/>
				<line class="st2" x1="0" y1="-46" x2="48" y2="-46"/>
			</g>
			<g>
				<path d="M47.7-0.2v-47.5H0.2v47.5H47.7 M48,0H0v-48h48V0L48,0z"/>
			</g>
		</g>
	</g>
</symbol>
<symbol  id="material_x5F_system_x5F_icon_x5F_keylines" viewBox="0 -48 48 48">
	<g class="st3">
		<defs>
			<rect id="SVGID_3_" x="0" y="-48" class="st3" width="48" height="48"/>
		</defs>
		<clipPath id="SVGID_4_">
			<use xlink:href="#SVGID_3_"  style="overflow:visible;"/>
		</clipPath>
		<line class="st4" x1="24" y1="0" x2="24" y2="-48"/>
		<line class="st4" x1="48" y1="-24" x2="0" y2="-24"/>
		<line class="st4" x1="48" y1="-16" x2="0" y2="-16"/>
		<line class="st4" x1="48" y1="-32" x2="0" y2="-32"/>
		<line class="st4" x1="32" y1="-48" x2="32" y2="0"/>
		<line class="st4" x1="16" y1="-48" x2="16" y2="0"/>
		<line class="st4" x1="47.7" y1="-0.3" x2="0.2" y2="-47.8"/>
		<line class="st4" x1="0.2" y1="-0.3" x2="47.7" y2="-47.8"/>
		<path class="st4" d="M24-14c-5.5,0-10-4.5-10-10c0-5.5,4.5-10,10-10c5.5,0,10,4.5,10,10C34-18.5,29.5-14,24-14z"/>
		<path class="st4" d="M24-4C12.9-4,4-12.9,4-24c0-11.1,8.9-20,20-20c11.1,0,20,8.9,20,20C44-12.9,35.1-4,24-4z"/>
		<path class="st4" d="M38-6H10c-2.2,0-4-1.8-4-4v-28c0-2.2,1.8-4,4-4h28c2.2,0,4,1.8,4,4v28C42-7.8,40.2-6,38-6z"/>
		<path class="st4" d="M40-8H8c-2.2,0-4-1.8-4-4v-24c0-2.2,1.8-4,4-4h32c2.2,0,4,1.8,4,4l0,24C44-9.8,42.2-8,40-8z"/>
		<path class="st4" d="M40-40v32c0,2.2-1.8,4-4,4H12C9.8-4,8-5.8,8-8v-32c0-2.2,1.8-4,4-4h24C38.2-44,40-42.2,40-40z"/>
		<g class="st5">
			<path d="M47.7-0.3v-47.5H0.2v47.5H47.7 M48,0H0v-48h48V0L48,0z"/>
		</g>
	</g>
</symbol>
<g class="st6">
	<circle id="circle" class="st7" cx="12" cy="12" r="10"/>
	<path id="Rectangle" class="st7" d="M19,21H5c-1.1,0-2-0.9-2-2V5c0-1.1,0.9-2,2-2h14c1.1,0,2,0.9,2,2v14C21,20.1,20.1,21,19,21z"/>
	<path id="Vertical_Rectangle" class="st7" d="M6,22h12c1.1,0,2-0.9,2-2V4c0-1.1-0.9-2-2-2H6C4.9,2,4,2.9,4,4v16C4,21.1,4.9,22,6,22
		z"/>
	<path id="Horizontal_Rectangle" class="st7" d="M22,18V6c0-1.1-0.9-2-2-2H4C2.9,4,2,4.9,2,6v12c0,1.1,0.9,2,2,2h16
		C21.1,20,22,19.1,22,18z"/>
</g>
<g id="border" class="st6">
	
		<use xlink:href="#material_x5F_system_x5F_icon_x5F_border"  width="48" height="48" id="XMLID_2_" y="-48" transform="matrix(0.5 0 0 -0.5 -1.144415e-04 -8.010902e-05)" style="display:inline;overflow:visible;"/>
</g>
<g id="grid" class="st6">
	
		<use xlink:href="#material_x5F_system_x5F_icon_x5F_grid"  width="48" height="48" id="XMLID_1_" x="0" y="-48" transform="matrix(0.5 0 0 -0.5 -1.144415e-04 -8.010902e-05)" style="display:inline;overflow:visible;opacity:0.15;"/>
</g>
<g id="keylines" class="st6">
	
		<use xlink:href="#material_x5F_system_x5F_icon_x5F_keylines"  width="48" height="48" id="XMLID_3_" x="0" y="-48" transform="matrix(0.5 0 0 -0.5 -1.144415e-04 -8.010902e-05)" style="display:inline;overflow:visible;"/>
</g>
<g id="Lager_20" class="st6">
</g>
<g id="football" class="st6">
	<path class="st8" d="M12,2C6.5,2,2,6.5,2,12s4.5,10,10,10s10-4.5,10-10S17.5,2,12,2z M20.2,8.3c0.3,0.6,0.5,1.3,0.6,2l-1-0.8
		L20.2,8.3z M19.5,7.1l-0.7,2.2l-3,1l-3.2-2.3V4.7l1.8-1.3C16.5,3.9,18.3,5.3,19.5,7.1z M13.8,14.5h-3.7L9,11l3-2.2l3,2.2L13.8,14.5
		z M13,3.1l-1,0.7l-1-0.7C11.4,3,11.7,3,12,3C12.3,3,12.6,3,13,3.1z M9.7,3.3l1.8,1.3v3.3l-3.2,2.3l-3.1-1L4.5,7.1
		C5.7,5.3,7.5,3.9,9.7,3.3z M4.2,9.4l-1,0.7c0.1-0.7,0.3-1.3,0.6-1.9L4.2,9.4z M3,11.6l1.8-1.4l3.2,1l1.2,3.7l-1.9,2.6l-2.3,0
		c-1.2-1.5-2-3.5-2-5.6C3,11.9,3,11.7,3,11.6z M7.2,18.6l0.4,1.3c-0.6-0.3-1.2-0.8-1.7-1.3L7.2,18.6z M8.9,20.4l-0.8-2.3l1.9-2.7
		h3.8l1.9,2.6l-0.8,2.3c-1,0.4-2,0.5-3.1,0.5C10.9,21,9.9,20.8,8.9,20.4z M18.1,18.6c-0.5,0.5-1.1,0.9-1.8,1.3l0.4-1.3L18.1,18.6z
		 M19.1,17.6l-2.4,0l-1.9-2.6l1.2-3.7l3.1-1l1.9,1.4c0,0.1,0,0.2,0,0.4C21,14.1,20.3,16,19.1,17.6z"/>
</g>
<g id="Boxing" class="st6">
	<path class="st8" d="M22,10.6c0-1-0.5-1.7-1.4-2.1c-0.5-2.7-2.4-4.1-5.2-4.1c-1.3,0-2.5,0.3-3.3,1c-0.9-0.6-2-1-3.3-1
		C5.8,4.4,4,5.8,3.4,8.5C2.5,8.9,2,9.6,2,10.6c0,0,0,0.2,0,0.2c0.1,1.6,0.9,3,2.3,4c0.4,0.3,0.9,0.5,1.4,0.7v2.9
		c0,0.7,0.5,1.2,1.2,1.2h3.6c0.7,0,1.2-0.5,1.2-1.2v-3.1c0.1-0.1,0.2-0.1,0.3-0.2c0.1,0.1,0.2,0.2,0.3,0.2v3.1
		c0,0.7,0.5,1.2,1.2,1.2h3.6c0.7,0,1.2-0.5,1.2-1.2v-2.9c0.5-0.2,1-0.4,1.4-0.7c1.4-0.9,2.2-2.4,2.3-4C22,10.8,22,10.6,22,10.6
		L22,10.6z M9,15.7H8.4v-0.9c0-0.2,0.1-0.3,0.3-0.3c0.2,0,0.3,0.1,0.3,0.3L9,15.7L9,15.7z M9,16.5v0.6H8.4v-0.6H9z M9,17.8v1.1H8.4
		v-1.1H9z M11.1,14.8l-0.2,0.1v3.5c0,0.3-0.2,0.5-0.5,0.5H9.7v-1.1h0.4c0.2,0,0.4-0.2,0.4-0.4c0-0.2-0.2-0.4-0.4-0.4H9.7v-0.6h0.4
		c0.2,0,0.4-0.2,0.4-0.4c0-0.2-0.2-0.4-0.4-0.4H9.7v-0.8c0-0.6-0.4-1-1-1c-0.6,0-1.1,0.4-1.1,1v0.9H7.3c-0.2,0-0.4,0.2-0.4,0.4
		c0,0.2,0.2,0.4,0.4,0.4h0.4v0.6H7.3c-0.2,0-0.4,0.2-0.4,0.4c0,0.2,0.2,0.4,0.4,0.4h0.4v1.1H6.8c-0.3,0-0.5-0.2-0.5-0.5V15l-0.3-0.1
		c-0.6-0.2-1-0.4-1.4-0.7c-1.2-0.8-1.9-2.1-1.9-3.4c0,0,0-0.1,0-0.2c0-0.7,0.4-1.2,1-1.5C4,9.1,4.5,9,4.7,9c0.9,0,2,0.3,2,1.5
		s-1.1,1.5-2,1.5c-0.1,0-0.3,0-0.4,0c-0.2,0-0.4,0.1-0.4,0.3c0,0.2,0.1,0.4,0.3,0.4c0.1,0,0.3,0,0.5,0c1,0,1.8-0.3,2.3-0.8
		C7.1,12,7.5,12,8.2,12c0.9,0,2.1-0.1,3-0.8c0.1-0.1,0.1-0.1,0.2-0.2l0.6,0.6c0.1,0.1,0.2,0.1,0.2,0.1c0.1,0,0.2,0,0.3-0.1
		c0.1-0.2,0.1-0.4-0.1-0.5l-0.6-0.5c0.3-0.4,0.5-1,0.5-1.6c0-0.2-0.1-0.4-0.3-0.4c-0.2,0-0.4,0.1-0.4,0.3c-0.1,0.8-0.4,1.4-0.9,1.8
		c-1,0.8-2.7,0.7-3.3,0.6c0.1-0.2,0.1-0.5,0.1-0.7c0-1.4-1-2.2-2.7-2.2c-0.2,0-0.3,0-0.5,0c0.5-2.1,2.1-3.2,4.4-3.2
		c1.5,0,2.7,0.5,3.5,1.4c0.8,0.9,1.2,2.1,1.2,3.8C13.3,11.8,12.9,13.8,11.1,14.8z M21.3,10.8c-0.1,1.3-0.8,2.6-1.9,3.4
		c-0.4,0.3-0.9,0.5-1.4,0.7c-0.1,0-0.6,0.2-1.4,0.3c-0.2,0-0.3,0.2-0.3,0.4c0,0.2,0.2,0.3,0.4,0.3c0,0,0,0,0,0
		c0.5,0,0.8-0.1,1.1-0.2v2.7c0,0.3-0.2,0.5-0.5,0.5h-3.6c-0.3,0-0.5-0.2-0.5-0.5v-2.8c0.4,0.1,0.8,0.2,1.2,0.3c0,0,0,0,0,0
		c0.2,0,0.3-0.1,0.4-0.3c0-0.2-0.1-0.4-0.3-0.4c-0.5-0.1-1-0.2-1.5-0.4c-0.1-0.1-0.2-0.1-0.3-0.2c1-1,1.5-2.5,1.5-4.4
		c0-1.9-0.5-3.4-1.5-4.4c0.7-0.5,1.7-0.7,2.8-0.7c2.5,0,4.1,1.3,4.5,3.7c0.1,0.4,0.1,1.4-0.4,2c-0.1,0.2-0.1,0.4,0,0.5
		c0.1,0.1,0.2,0.1,0.2,0.1c0.1,0,0.2,0,0.3-0.1c0.5-0.6,0.6-1.3,0.6-1.9c0.4,0.3,0.6,0.7,0.6,1.3C21.3,10.7,21.3,10.8,21.3,10.8z"/>
</g>
<g id="cricket" class="st6">
	<path class="st8" d="M21.6,4.4c0.5-0.5,0.5-1.4,0-2C21.3,2.1,21,2,20.6,2c-0.4,0-0.7,0.1-1,0.4l-4.3,4.3c-0.3,0.3-0.8,0.3-1.1,0
		l0,0c-0.1-0.1-0.4-0.1-0.5,0L7,13.4c-0.5-0.4-1.1-0.6-1.7-0.5c-1.2,0.1-2.2,1.1-2.2,2.2c0,0.6,0.2,1.2,0.5,1.7l-1.4,1.4
		c-0.1,0.1-0.1,0.4,0,0.5l3.1,3.1c0.1,0.1,0.4,0.1,0.5,0l11.6-11.6c0.1-0.1,0.1-0.4,0-0.5l0,0c-0.1-0.1-0.2-0.3-0.2-0.5
		c0-0.2,0.1-0.5,0.2-0.6L21.6,4.4z M12.5,9l2.5,2.5l-0.4,0.4l-2.5-2.5L12.5,9z M5.4,13.7c0.9,0,1.6,0.7,1.6,1.6s-0.7,1.6-1.6,1.6
		s-1.6-0.7-1.6-1.6S4.5,13.7,5.4,13.7z M3,18.5l1.2-1.2c0.4,0.2,0.8,0.4,1.3,0.4c1.3,0,2.4-1.1,2.4-2.4c0-0.5-0.1-0.9-0.4-1.3l4-4
		l2.5,2.5L5.5,21L3,18.5z M16.7,8.1c-0.3,0.3-0.5,0.7-0.5,1.1c0,0.3,0.1,0.6,0.2,0.8l-0.9,0.9l-2.5-2.5L14,7.5
		c0.6,0.4,1.4,0.3,1.9-0.3L20.2,3c0.1-0.1,0.2-0.2,0.4-0.2c0.2,0,0.3,0.1,0.4,0.2c0.2,0.2,0.2,0.6,0,0.8L16.7,8.1z"/>
</g>
<g id="dart" class="st6">
	<path class="st8" d="M15.7,10.1l2.9,0.8c0,0,0.1,0,0.1,0c0.1,0,0.2,0,0.3-0.1l2.9-2.9C22,7.8,22,7.6,21.9,7.4l-1.8-2.7l0.5-0.5
		c0.2-0.2,0.2-0.4,0-0.6c-0.2-0.2-0.4-0.2-0.6,0l-0.5,0.5l-2.7-1.8c-0.2-0.1-0.4-0.1-0.5,0.1l-2.9,2.9c-0.1,0.1-0.2,0.3-0.1,0.4
		l0.8,2.9l-2.1,2l-2.1-2l0.8-2.9c0-0.1,0-0.3-0.1-0.4L7.7,2.4C7.5,2.2,7.3,2.2,7.1,2.3L4.4,4.1L4,3.6c-0.2-0.2-0.4-0.2-0.6,0
		c-0.2,0.2-0.2,0.4,0,0.6l0.5,0.5L2.1,7.4C2,7.6,2,7.8,2.1,7.9L5,10.8c0.1,0.1,0.2,0.1,0.3,0.1c0,0,0.1,0,0.1,0l2.9-0.8l2,2.1
		l-2.2,2.1c-0.1,0-0.3,0-0.4,0.1l-3,3c-0.5,0.5-0.6,1.2-0.3,1.8l-2,2.6l2.6-2C5.3,19.9,5.5,20,5.8,20c0.4,0,0.8-0.2,1.1-0.4l3-3
		c0.1-0.1,0.1-0.2,0.1-0.3c0,0,0-0.1,0-0.1L12,14l2.1,2.1c0,0.1,0,0.3,0.1,0.4l3,3c0.3,0.3,0.7,0.4,1.1,0.4c0.3,0,0.5-0.1,0.7-0.2
		l2.6,2l-2-2.6c0.1-0.2,0.2-0.5,0.2-0.7c0-0.4-0.2-0.8-0.4-1.1l-3-3c-0.1-0.1-0.3-0.1-0.4-0.1l-2.2-2.1L15.7,10.1z M21,7.6L18.6,10
		l-2.9-0.8l0,0l3.9-3.9L21,7.6z M16.7,3.2l2.3,1.5l-3.9,3.9l0,0l-0.8-2.9L16.7,3.2z M14.6,9.3l0.4,0.4l-1.9,1.9l-0.4-0.4L14.6,9.3z
		 M7.3,3.2l2.4,2.4L9,8.5L8.9,8.6L5.1,4.7L7.3,3.2z M3,7.6l1.5-2.3l3.9,3.9L8.3,9.2L5.4,10L3,7.6z M9.4,9.3l5.8,5.6l-0.6,0.6
		L9.1,9.7L9.4,9.3z M5.8,17.5l0.3-0.3L7,18.1l-0.3,0.3L5.8,17.5z M6.7,16.6L7,16.3l0.9,0.9l-0.3,0.3L6.7,16.6z M5.3,18.9
		c-0.2-0.2-0.2-0.5-0.1-0.8L6.1,19c-0.1,0.1-0.2,0.1-0.3,0.1C5.6,19.1,5.5,19,5.3,18.9z M8.5,16.6l-0.9-0.9L8,15.3l0.9,0.9L8.5,16.6
		z M9.4,15.5l-0.6-0.6l2.1-2l0.5,0.5L9.4,15.5z M17.3,18.4L17,18.1l0.9-0.9l0.3,0.3L17.3,18.4z M16.4,17.5l-0.3-0.3l0.9-0.9l0.3,0.3
		L16.4,17.5z M18.7,18.9c-0.1,0.1-0.3,0.2-0.4,0.2c-0.1,0-0.2,0-0.3-0.1l0.9-0.9c0.1,0.1,0.1,0.2,0.1,0.3
		C18.8,18.6,18.8,18.8,18.7,18.9z M16.4,15.7l-0.9,0.9l-0.4-0.4l0.9-0.9L16.4,15.7z"/>
</g>
<g id="esport" class="st6">
	<path class="st8" d="M10.1,6.4c-0.3-0.3-0.9-0.3-1.2,0L8.2,7.1L7.6,6.4c-0.3-0.3-0.9-0.3-1.2,0c-0.3,0.3-0.3,0.9,0,1.2l0.7,0.7
		L6.4,8.9c-0.3,0.3-0.3,0.9,0,1.2c0.2,0.2,0.4,0.2,0.6,0.2s0.4-0.1,0.6-0.2l0.7-0.7l0.7,0.7c0.2,0.2,0.4,0.2,0.6,0.2
		s0.4-0.1,0.6-0.2c0.3-0.3,0.3-0.9,0-1.2L9.4,8.2l0.7-0.7C10.4,7.3,10.4,6.7,10.1,6.4z"/>
	<path class="st8" d="M15.8,12.8c-1.6,0-2.9,1.3-2.9,2.9s1.3,2.9,2.9,2.9s2.9-1.3,2.9-2.9S17.4,12.8,15.8,12.8z M15.8,17
		c-0.7,0-1.2-0.6-1.2-1.2s0.6-1.2,1.2-1.2s1.2,0.6,1.2,1.2S16.4,17,15.8,17z"/>
	<path class="st8" d="M21.8,2.2c-0.3-0.3-0.9-0.3-1.2,0L18,4.8c-0.7-0.4-1.7-0.4-2.5,0.1l-1.1,0.7l-1.8-1.8c0,0,0,0,0,0
		C11.5,2.6,9.9,2,8.2,2C6.6,2,5,2.7,3.8,3.8C2.7,5,2,6.6,2,8.2s0.7,3.2,1.8,4.4c1.2,1.2,2.8,1.8,4.4,1.8c0.3,0,0.6,0,0.9-0.1
		l0.5,0.5c-0.3,1.9,0.4,3.9,1.8,5.3c1.2,1.2,2.7,1.8,4.4,1.8s3.2-0.7,4.4-1.8c1.2-1.2,1.8-2.7,1.8-4.4c0-1.7-0.6-3.2-1.8-4.4
		c0,0,0,0,0,0l-1.7-1.7l0.7-1.2c0.5-0.8,0.5-1.7,0-2.4l2.6-2.6C22.1,3.1,22.1,2.6,21.8,2.2z M19,19c-0.9,0.9-2,1.3-3.2,1.3
		s-2.4-0.5-3.2-1.3c-1.1-1.1-1.6-2.7-1.2-4.2c0,0,0,0,0,0c0,0,0-0.1,0-0.1c0,0,0,0,0,0c0,0,0-0.1,0-0.1c0,0,0,0,0-0.1c0,0,0,0,0-0.1
		c0,0,0-0.1,0-0.1c0,0,0,0,0-0.1c0,0,0-0.1,0-0.1c0,0,0,0,0,0c0,0,0-0.1-0.1-0.1c0,0,0,0,0,0L10,13c0,0,0,0,0,0c0,0-0.1,0-0.1-0.1
		c0,0,0,0-0.1,0c0,0,0,0-0.1,0c0,0,0,0-0.1,0c0,0-0.1,0-0.1,0c0,0,0,0,0,0c0,0-0.1,0-0.1,0c0,0,0,0,0,0c0,0,0,0-0.1,0
		c0,0-0.1,0-0.1,0c0,0,0,0,0,0c-1.5,0.3-3.1-0.1-4.2-1.2c-0.9-0.9-1.3-2-1.3-3.2S4.1,5.9,5,5c0.9-0.9,2-1.3,3.2-1.3s2.4,0.5,3.2,1.3
		c0,0,0,0,0,0l2.2,2.2c0,0,0,0,0,0l3,3c0,0,0,0,0,0l2.2,2.2c0,0,0,0,0,0c0.9,0.9,1.3,2,1.3,3.2S19.9,18.1,19,19z M15.7,6.8l0.8-0.5
		c0.3-0.2,0.6-0.1,0.8,0.1l0.4,0.4c0.2,0.2,0.3,0.5,0.1,0.8l-0.5,0.8L15.7,6.8z"/>
	<path class="st8" d="M13.4,12.6c0.3-0.3,0.3-0.9,0-1.2l-0.8-0.8c-0.3-0.3-0.9-0.3-1.2,0c-0.3,0.3-0.3,0.9,0,1.2l0.8,0.8
		c0.2,0.2,0.4,0.2,0.6,0.2C13,12.8,13.3,12.8,13.4,12.6z"/>
</g>
<g id="golf" class="st6">
	<g class="st8">
		<path d="M22,16.2c-0.2-0.3-0.4-0.5-0.7-0.7L18.1,18l-2.7,3.8c-0.5,0.6-0.3,1.5,0.3,2c0.6,0.5,1.5,0.3,2-0.3l4.1-5.7
			C22.2,17.2,22.2,16.7,22,16.2z"/>
		<path d="M21.6,12.9c-0.2-0.3-1.6-2.2-2.6-3.7c-0.4-0.6-1.2-1-1.9-1h0c-0.6,0.6-1.4,1-2.3,1c-0.9,0-1.7-0.4-2.3-1
			c-0.7,0-1.4,0.3-1.8,0.9l-1.6,2.2l-1.4-1V13l1,0.7c0.5,0.4,1.2,0.2,1.5-0.2l1.5-2v3.9H8.7c-0.4,0-0.8,0.2-1.1,0.5v1.9l4,5.6
			c0.5,0.6,1.4,0.8,2,0.3c0.6-0.5,0.8-1.4,0.3-2l-2.5-3.5c1.1,0,4.2,0,4.9,0c-0.3-0.1-0.6-0.3-0.8-0.6c-0.6-0.8-0.5-2,0.3-2.6l2-1.6
			v-2c0.4,0.6,1,1.4,1.4,1.9l-2.9,2.3c-0.5,0.4-0.6,1.1-0.2,1.5c0.4,0.5,1.1,0.6,1.5,0.2l3.7-2.9C21.8,14.1,21.9,13.4,21.6,12.9z"/>
		<path d="M4.3,9.3C4,9.8,4.1,10.5,4.6,10.8L5,11.1V8.9C4.7,8.9,4.5,9.1,4.3,9.3z"/>
		<path d="M17.1,5.9c0,1.4-1.1,2.5-2.5,2.5s-2.5-1.1-2.5-2.5c0-1.4,1.1-2.5,2.5-2.5S17.1,4.6,17.1,5.9z"/>
		<path d="M5.7,23.4c0,0.3,0.3,0.6,0.6,0.6s0.6-0.3,0.6-0.6V0.6C6.9,0.3,6.6,0,6.3,0S5.7,0.3,5.7,0.6v0.3C5.2,1.1,2.5,2.5,2,2.7
			C1.8,2.8,1.8,3.1,2,3.2C2.5,3.4,5.2,4.8,5.7,5V23.4z"/>
	</g>
</g>
<g id="handball" class="st6">
	<g class="st8">
		<path d="M19,13.7c-0.2,0.2-0.4,0.2-0.7,0.2c-0.3,0-0.6-0.1-0.8-0.4l-0.3-0.4c-0.8-1-1.7-1.9-2.7-2.8c0,0,0.2,6.8-4.2,10.8
			l-0.5,0.5C9.5,21.9,9.2,22,8.9,22c-0.3,0-0.6-0.1-0.8-0.3c-0.4-0.4-0.4-1.1,0-1.5l0.5-0.5c1.2-1.2,2.1-2.7,2.5-4.4
			c-0.7,0.2-1.4,0.3-2.2,0.3c-1.4,0-2.7-0.4-3.9-1.1c-0.5-0.3-0.6-1-0.3-1.5c0.3-0.5,1-0.6,1.5-0.3c1.4,0.9,3.1,1,4.6,0.4l0.4-3.8
			c-0.1,0-0.2,0-0.3,0c-1.5,0-3-0.6-4.2-1.6L6.8,7.6c-0.1,0-0.2,0-0.3,0c-1,0-1.9-0.8-1.9-1.9s0.8-1.9,1.9-1.9s1.9,0.8,1.9,1.9
			c0,0.1,0,0.3,0,0.4c1,0.9,2.4,1.3,3.8,0.9l0.6-0.2c0,0,0,0,0,0c0,0,0,0,0.1,0c0,0,0,0,0,0c0,0,0,0,0.1,0c0,0,0,0,0.1,0
			c0,0,0,0,0,0c0,0,0,0,0.1,0c0,0,0,0,0,0c0,0,0,0,0.1,0c0,0,0,0,0.1,0c0,0,0,0,0,0c0,0,0,0,0.1,0c0,0,0,0,0,0c0,0,0,0,0.1,0
			c0,0,0,0,0,0c0,0,0,0,0.1,0c0,0,0,0,0,0c0,0,0,0,0,0c0,0,0,0,0,0c0,0,0,0,0,0l1.1,0.8c1.5,1.2,2.8,2.5,4,3.9l0.3,0.4
			C19.5,12.6,19.4,13.3,19,13.7z M12.9,6.4c1.2,0,2.2-1,2.2-2.2c0-1.2-1-2.2-2.2-2.2s-2.2,1-2.2,2.2C10.8,5.4,11.7,6.4,12.9,6.4z"/>
	</g>
</g>
<g id="icehockey" class="st6">
	<g class="st8">
		<path d="M21.4,10.3c-2.3-1.3-4.8-2-7.4-2h-1c0,0-0.1,0-0.1,0c-0.4,0-0.9,0.1-1.2,0.4l-4.1,3.4C7,12.6,6.8,13.3,7,13.9l-4.7,4.7
			c-0.4,0.4-0.4,1.2,0,1.6c0.2,0.2,0.5,0.3,0.8,0.3c0.3,0,0.6-0.1,0.8-0.3L9,15c0.1,0,0.1,0,0.2-0.1c0.1,0.1,0.2,0.1,0.3,0.1
			l3.5,1.2l0.5,1.2l-0.4,0.4l-3.6,0c-0.3,0-0.5,0.1-0.8,0.3c-0.4,0.2-0.6,0.6-0.6,1.1c0,0.7,0.6,1.3,1.3,1.3h0.1h2.3h0
			c0.1,0,0.3-0.1,0.4-0.2l1.5-1.5l0.2-0.2l0.5,1.2c0.2,0.4,0.6,0.7,1,0.7c0.1,0,0.3,0,0.4-0.1c0.6-0.2,0.8-0.9,0.6-1.5l-0.9-2
			l4.6-4.6c0.5,0.3,1.2,0.1,1.5-0.4C22.2,11.3,22,10.6,21.4,10.3z M14.9,14.9c-0.1-0.3-0.4-0.5-0.7-0.6l-2.9-1l2.5-2
			c0.2-0.2,0.4-0.5,0.5-0.7c1.7,0,3.4,0.4,5,1.1l-4.1,4.1L14.9,14.9z M11.3,5.4c0-1.1,0.9-1.9,1.9-1.9c1.1,0,1.9,0.9,1.9,1.9
			s-0.9,1.9-1.9,1.9S11.3,6.4,11.3,5.4z"/>
	</g>
</g>
<g id="mma" class="st6">
	<g class="st8">
		<path d="M21.8,5.4l-0.7,0.8c-0.9,1.1-1.5,2.4-1.6,3.8c0.3,0.3,0.5,0.6,0.5,1c0,0.3,0,1.1-0.6,2.5c-0.7,1.6-2.9,2.7-3.1,2.8
			c-0.2,0.1-0.4,0.2-0.6,0.2c-0.2,0-0.4-0.1-0.6-0.2c-1.2-0.9-2.3-1.9-3.3-3l-0.5-0.6c0,0-0.1-0.1-0.1-0.1c0,0,0,0,0,0L10.7,12
			c-0.5-0.6-1.1-1.2-1.7-1.7l0,0c-0.4,0.2-1.8,1.5-1.7,2.8c1.3,1.8,1.9,4,1.7,6.3c0,0.6-0.6,1-1.2,1c-0.6,0-1-0.6-1-1.2
			C7,18,6.8,16.8,6.4,15.7c-0.4,1.2-1,2.4-1.8,3.4l-0.7,0.8c-0.2,0.3-0.5,0.4-0.8,0.4c-0.2,0-0.5-0.1-0.7-0.2
			c-0.5-0.4-0.5-1.1-0.1-1.5l0.7-0.8c1-1.2,1.5-2.6,1.6-4.1l0,0c-0.2-0.2-0.4-0.6-0.4-0.9c0-0.3,0-1.1,0.6-2.5
			c0.6-1.5,2.6-2.5,3.1-2.8c0,0,0.1,0,0.1,0C8.3,7.3,8.7,7.3,9,7.5c1.2,0.9,2.3,1.9,3.3,3l0.5,0.6c0,0,0.1,0.1,0.1,0.1c0,0,0,0,0,0
			l0.5,0.6c0.5,0.6,1.1,1.2,1.7,1.7c0.4-0.3,1.1-0.7,1.3-1.2c0.4-0.8,0.3-1.2,0.3-1.2c-1.4-1.8-2-4.1-1.8-6.4c0-0.6,0.6-1,1.2-1
			c0.6,0,1,0.6,1,1.2C17,6,17.2,7.2,17.6,8.3c0.4-1.2,1-2.4,1.8-3.4l0.7-0.8c0.2-0.3,0.5-0.4,0.8-0.4c0.2,0,0.5,0.1,0.7,0.2
			C22.1,4.3,22.1,5,21.8,5.4z M11.3,7.5c0.9-0.2,1.5-1,1.3-1.9c-0.2-0.9-1-1.5-1.9-1.3c-0.9,0.2-1.5,1-1.3,1.9
			C9.6,7.1,10.4,7.7,11.3,7.5z M12.8,16.3c-0.9,0.2-1.5,1-1.3,1.9c0.2,0.9,1,1.5,1.9,1.3c0.9-0.2,1.5-1,1.3-1.9
			C14.5,16.7,13.7,16.1,12.8,16.3z"/>
	</g>
</g>
<g id="rugby" class="st6">
	<g class="st8">
		<g>
			<path d="M7.4,22c3.7,0,7.5-1.4,10.3-4.3c4.1-4.1,5.2-9.9,3.5-15C19.8,2.2,18.2,2,16.6,2C12.9,2,9.1,3.4,6.3,6.3
				c-4.1,4.1-5.2,9.9-3.5,15C4.2,21.8,5.8,22,7.4,22z M7.4,7.4c2.4-2.4,5.7-3.8,9.2-3.8c1.1,0,2.2,0.1,3.3,0.4
				c1.2,4.5-0.1,9.2-3.4,12.5c-2.4,2.4-5.7,3.8-9.2,3.8c-1.1,0-2.2-0.1-3.3-0.4C2.9,15.5,4.2,10.7,7.4,7.4z"/>
			<path d="M8.8,14.1l-1,1c-0.3,0.3-0.3,0.8,0,1.2c0.2,0.2,0.4,0.2,0.6,0.2c0.2,0,0.4-0.1,0.6-0.2l1-1l1.2,1.2
				c0.2,0.2,0.4,0.2,0.6,0.2c0.2,0,0.4-0.1,0.6-0.2c0.3-0.3,0.3-0.8,0-1.2l-1.2-1.2l0.9-0.9l1.2,1.2c0.2,0.2,0.4,0.2,0.6,0.2
				c0.2,0,0.4-0.1,0.6-0.2c0.3-0.3,0.3-0.8,0-1.2L13.2,12l0.9-0.9l1.2,1.2c0.2,0.2,0.4,0.2,0.6,0.2c0.2,0,0.4-0.1,0.6-0.2
				c0.3-0.3,0.3-0.8,0-1.2l-1.2-1.2l1-1c0.3-0.3,0.3-0.8,0-1.2c-0.3-0.3-0.8-0.3-1.2,0l-1,1L13,7.5c-0.3-0.3-0.8-0.3-1.2,0
				c-0.3,0.3-0.3,0.8,0,1.2L13,9.9L12,10.8l-1.2-1.2c-0.3-0.3-0.8-0.3-1.2,0c-0.3,0.3-0.3,0.8,0,1.2l1.2,1.2l-0.9,0.9l-1.2-1.2
				c-0.3-0.3-0.8-0.3-1.2,0c-0.3,0.3-0.3,0.8,0,1.2L8.8,14.1z"/>
		</g>
	</g>
</g>
<g id="ski_jumping" class="st6">
	<path class="st8" d="M22,4.9c0,1.1-0.9,2.1-2.1,2.1c-1.1,0-2.1-0.9-2.1-2.1s0.9-2.1,2.1-2.1C21.1,2.8,22,3.7,22,4.9z M20,10.1
		L8.4,16.6c0.4-0.8,1-1.7,1.7-2.8c0.4-0.1,0.7-0.3,1-0.6c0.4-0.6,1.8-2.2,3-2.9c1.6-1,2.6-1.5,2.6-1.5c0.8-0.4,1.1-1.3,0.8-2
		c-0.4-0.8-1.3-1.1-2-0.8c0,0-0.3,0.2-0.9,0.5L7.8,7.6c-0.6,0.1-1,0.7-0.9,1.2C7,9.4,7.4,9.7,7.9,9.7c0.1,0,0.1,0,0.2,0l2.3-0.4
		c-1,1-1.7,2-1.8,2c-0.3,0.4-0.4,0.8-0.3,1.2c-1.9,2.6-2.7,4.8-2.7,4.9c-0.1,0.2-0.1,0.5,0,0.7L2.3,20c-0.3,0.2-0.4,0.5-0.2,0.8
		l0.1,0.2c0.2,0.3,0.5,0.4,0.8,0.2L7,18.9c0.1,0,0.3-0.1,0.4-0.2l12.3-6.8c0.5-0.3,0.7-1,0.4-1.5L20,10.1z"/>
</g>
<g id="snooker" class="st6">
	<g id="_14-biilard" class="st8">
		<g id="Glyph">
			<path d="M12,7.8c-1.4,0-2.5,1.1-2.5,2.5c0,0.6,0.2,1.2,0.6,1.7c-0.9,1-0.8,2.6,0.2,3.5c1,0.9,2.6,0.8,3.5-0.2
				c0.9-0.9,0.9-2.4,0-3.3c0.9-1,0.8-2.6-0.2-3.5C13.2,8.1,12.6,7.8,12,7.8z M12,9.5c0.5,0,0.8,0.4,0.8,0.8c0,0.5-0.4,0.8-0.8,0.8
				s-0.8-0.4-0.8-0.8C11.2,9.9,11.5,9.5,12,9.5z M12,14.5c-0.5,0-0.8-0.4-0.8-0.8c0-0.5,0.4-0.8,0.8-0.8s0.8,0.4,0.8,0.8
				C12.8,14.1,12.5,14.5,12,14.5z"/>
			<path d="M12,2C6.5,2,2,6.5,2,12s4.5,10,10,10s10-4.5,10-10C22,6.5,17.5,2,12,2z M12,18.7c-3.7,0-6.7-3-6.7-6.7s3-6.7,6.7-6.7
				s6.7,3,6.7,6.7C18.7,15.7,15.7,18.7,12,18.7z"/>
		</g>
	</g>
</g>
<g id="tennis" class="st6">
	<g class="st8">
		<path d="M20.7,5.2c-0.4-0.2-0.8-0.4-1.3-0.4c-1.3,0-2.4,1.1-2.5,2.4l0,2.2c-1.7-0.1-3.4-0.6-4.9-1.6l-0.9-0.6
			c-0.2-0.1-0.5-0.2-0.5-0.2c-1-0.3-1.9,0.1-2.3,1l-2.1,5.3C6.1,13.6,6,14.1,6,14.5c0,2-1,3.9-2.7,5l-0.6,0.4
			c-0.5,0.4-0.7,1.1-0.3,1.6C2.7,22,3.4,22.1,4,21.8l0.6-0.4c1.7-1.2,3-2.9,3.5-4.9c1.7,1.3,3.1,2.8,4.2,4.6l0.3,0.4
			c0.2,0.3,0.6,0.5,1,0.5c0.2,0,0.4-0.1,0.6-0.2c0.5-0.4,0.7-1.1,0.3-1.6l-0.3-0.4c-1.3-2-2.9-3.7-4.8-5.1l0.8-2.1
			c1.3,1,2.9,1.9,4.5,2.4l0.4,0.1c0.1,0,0.2,0.1,0.4,0.1c0.5,0,0.9-0.3,1.1-0.8c0.1-0.4,0-0.7-0.2-1l1-1.6h0.2
			c0.6,0,1.2-0.5,1.2-1.2c0,0,0-0.1,0-0.1l1.9-1c0.8-0.4,1.3-1.2,1.3-2.1C21.9,6.4,21.4,5.6,20.7,5.2z M11.2,10.1
			c1.5,0.8,3.1,1.4,4.8,1.6l-0.7,1.1c-1.5-0.5-3-1.4-4.2-2.4L11.2,10.1z M20,8.4l-2,1.1l0-2.2c0-0.8,0.7-1.3,1.3-1.3
			c0.2,0,0.5,0.1,0.7,0.2c0.4,0.2,0.6,0.7,0.6,1.1C20.7,7.8,20.4,8.2,20,8.4z M9.7,4.1c0-1.2,1-2.1,2.1-2.1c1.2,0,2.1,1,2.1,2.1
			s-1,2.1-2.1,2.1C10.6,6.2,9.7,5.3,9.7,4.1z"/>
	</g>
</g>
<g id="volleyball" class="st6">
	<g class="st8">
		<path d="M20.5,8c0,1-0.8,1.8-1.8,1.8c-1,0-1.8-0.8-1.8-1.8s0.8-1.8,1.8-1.8C19.7,6.2,20.5,7,20.5,8z M17.4,11.7L11,7.8
			c0,0-0.1,0-0.1-0.1c-0.2-0.1-0.4-0.2-0.6-0.3c-0.9-0.2-1.8,0.3-2,1.2l-1.2,4.8c-0.1,0.3-0.1,0.8-0.1,0.8c0.1,2-0.8,3.9-2.4,5.2
			L4,20c-0.5,0.4-0.6,1-0.2,1.5C4,21.8,4.3,22,4.6,22c0.2,0,0.5-0.1,0.7-0.2L6,21.2c1.6-1.2,2.7-3,3.1-4.9c1.6,1.4,2.9,3.1,3.7,5
			c0.2,0.4,0.6,0.6,1,0.6c0.1,0,0.3,0,0.4-0.1c0.6-0.2,0.8-0.9,0.5-1.4c-1-2.3-2.6-4.3-4.5-5.9c0-0.1,0-0.1,0.1-0.2l0.9-3.8l5,3.1
			c0.2,0.1,0.4,0.2,0.6,0.2c0.4,0,0.7-0.2,0.9-0.5C18.1,12.7,18,12.1,17.4,11.7z M10.8,6.6c1.3,0,2.3-1,2.3-2.3S12.1,2,10.8,2
			C9.5,2,8.5,3,8.5,4.3S9.5,6.6,10.8,6.6z"/>
	</g>
</g>
<g id="boxing" class="st6">
	<g class="st8">
		<path d="M19.4,7.1c0,0.8-0.7,1.5-1.5,1.5c-0.3,0-0.6-0.1-0.8-0.3l-0.1,0c-1.5,0.4-3,0.6-4.5,0.7c0.6,0.5,1.4,0.9,2.2,1
			c0.3-0.3,0.7-0.5,1.2-0.5c0.8,0,1.5,0.7,1.5,1.5c0,0.8-0.7,1.5-1.5,1.5c-0.4,0-0.8-0.2-1-0.4c-1.1-0.1-2.2-0.5-3.1-1.1
			c0,0-0.4,3.6-0.5,3.7c1.9,1.5,3.3,3.4,4.3,5.6l0,0c0.2,0.5,0,1.2-0.5,1.4c-0.1,0.1-0.3,0.1-0.4,0.1c-0.4,0-0.8-0.2-1-0.6l0,0
			c-0.8-1.8-2-3.4-3.5-4.7c-0.4,1.8-1.4,3.5-3,4.7l-0.7,0.6C6.1,21.9,5.9,22,5.7,22c-0.3,0-0.6-0.1-0.8-0.4
			c-0.3-0.5-0.3-1.1,0.2-1.5l0.7-0.6c1.5-1.1,2.4-3,2.3-4.9l0,0c0,0,0,0,0,0c0,0,0,0,0-0.1c0,0,0-0.5,0-0.7l0.8-5.4
			C9,7.7,9.5,7.2,10.2,7.1c0.1,0,0.2-0.1,0.4-0.1l1,0c1.6,0,3.2-0.3,4.7-0.7l0.1,0c0.3-0.5,0.8-0.8,1.3-0.8
			C18.7,5.5,19.4,6.2,19.4,7.1z M11.9,6.5c1.2,0,2.2-1,2.2-2.2S13.1,2,11.9,2c-1.2,0-2.2,1-2.2,2.2C9.7,5.5,10.7,6.5,11.9,6.5z"/>
	</g>
</g>
<g id="basket" class="st6">
	<path class="st8" d="M20.2,6.3C18.4,3.6,15.3,2,12,2c-2,0-4,0.6-5.7,1.8c-4.5,3.1-5.7,9.4-2.5,13.9C5.6,20.4,8.7,22,12,22
		c0,0,0,0,0,0c2,0,4-0.6,5.7-1.8c2.2-1.5,3.7-3.8,4.2-6.4S21.7,8.5,20.2,6.3z M18.9,6.3c-2.1-0.2-4.3,0.3-6.1,1.6
		c-0.6,0.4-1.1,0.8-1.5,1.3c-0.7-0.3-1.4-0.5-2.2-0.8c0.9-1.2,1.9-2.2,3.1-3c1-0.7,2.1-1.2,3.2-1.6C16.8,4.3,18,5.2,18.9,6.3z
		 M8.5,9.3c0.7,0.2,1.4,0.4,2.1,0.7c-2.3,3.1-2.3,7.3-0.1,10.6c0.1,0.1,0.2,0.2,0.3,0.4c-1.5-0.2-2.8-0.8-4-1.6
		C6,15.8,6.6,12.2,8.5,9.3z M14,3.2c-0.8,0.4-1.6,0.8-2.3,1.3c-1.4,1-2.6,2.2-3.6,3.6C7.6,8,7.1,7.9,6.7,7.8C7,6.7,7.1,5.6,7.1,4.4
		C8.6,3.5,10.3,3,12,3C12.7,3,13.3,3.1,14,3.2z M6.1,5.2C6,6.1,5.9,6.9,5.7,7.7c-0.5-0.1-1-0.1-1.5-0.1C4.7,6.7,5.3,5.9,6.1,5.2z
		 M3.7,8.6c0.6,0,1.1,0.1,1.7,0.1C4.8,10.2,4,11.5,3,12.8C2.9,11.3,3.2,9.9,3.7,8.6z M4.6,17.1c-0.7-0.9-1.1-2-1.4-3
		c1.4-1.5,2.5-3.3,3.1-5.2C6.7,8.9,7.1,9,7.5,9c-1.6,2.8-2.3,6-2,9.2C5.2,17.9,4.9,17.5,4.6,17.1z M17.1,19.4
		c-1.5,1-3.2,1.6-4.9,1.6c-0.3-0.3-0.6-0.7-0.8-1c-2-2.9-1.9-6.8,0.3-9.6c3.2,1.4,5.9,3.6,8,6.4C18.9,17.8,18.1,18.7,17.1,19.4z
		 M20.8,13.6c-0.1,0.8-0.4,1.5-0.7,2.2c-2.1-2.7-4.8-4.8-7.8-6.2C12.6,9.3,13,9,13.4,8.7c1.9-1.3,4.2-1.7,6.4-1.2
		C20.8,9.3,21.2,11.5,20.8,13.6z"/>
</g>
<g id="Horse" class="st6">
	<g id="XMLID_505_" class="st8">
		<path id="XMLID_506_" d="M0.9,14.2C0.4,14.2,0,14.6,0,15c0,0.5,0.4,0.9,0.9,0.9h5.6l-1.5-1.7H0.9z"/>
		<path id="XMLID_507_" d="M24,15l-0.8-4c-0.3-1.3-1.2-2.4-2.4-2.8l-1.1-2.2c-0.2-0.3-0.5-0.5-0.9-0.5c-0.4,0-0.6,0.3-0.7,0.6
			l-0.6,2.4c-0.8,0.6-1.1,1.1-1.6,2c0.6,0.2,1,0.8,1.2,1.4c0.7-1.2,1-2.2,2.3-2.3c1-0.1,2,0.6,2.1,1.6l0.8,4c0,0.1,0,0.2-0.2,0.2
			c-0.1,0-0.2,0-0.2-0.1l-1.5-1.9c-0.3-0.4-0.8-0.4-1.2-0.1c-0.4,0.3-0.4,0.8-0.1,1.2c1.4,1.8,2,2.9,3.4,2.5
			C23.5,17,24.2,16.1,24,15z"/>
		<path id="XMLID_508_" d="M14.7,14.3l-0.7-0.2l-0.1,0.1h-2.1l0.6,0.6c0.3,0.3,0.5,0.7,0.6,1.1h1.4c0.3,0,0.6-0.2,0.7-0.4l0.7-1.2
			C15.4,14.4,15,14.4,14.7,14.3z"/>
		<path id="XMLID_509_" d="M14.6,5.4c0.8-0.8,0.8-2,0-2.8c-0.8-0.8-2-0.8-2.8,0c-0.8,0.8-0.8,2,0,2.8C12.6,6.2,13.8,6.2,14.6,5.4z"
			/>
		<path id="XMLID_510_" d="M15.5,11.4l-2.8-0.8L11.8,8l0.5,0.8c0.2-0.6,0.1-1.3-0.4-1.8l-0.5-0.5c-0.3-0.3-0.7-0.5-1.2-0.5
			C9.8,5.9,9.4,6.1,9,6.4L5.6,9.7c-0.9,0.9-1,2.4,0,3.3c0.8,0.9,0.2,0.1,3.5,3.8l-0.9,3.5C7.9,21,8.3,21.7,9,21.9
			c0.7,0.2,1.4-0.2,1.6-0.9l1.1-4.2c0.1-0.4,0-0.9-0.3-1.2l-2.8-3.1c1.1-1.1,0.8-0.8,1.3-1.3L9.8,8.6l1,3.2c0.1,0.3,0.4,0.6,0.7,0.7
			l3.4,1c0.1,0,0.2,0,0.3,0c0.5,0,0.9-0.3,1-0.8C16.4,12.2,16.1,11.6,15.5,11.4z"/>
	</g>
</g>
<g id="floorball" class="st6">
	<g id="XMLID_74_" class="st8">
		<path id="XMLID_75_" d="M18.8,12.7l-0.6-0.5l0.8,1.6C19.2,13.4,19.1,12.9,18.8,12.7z"/>
		<path id="XMLID_76_" d="M14.3,5.3c0.9,0.7,2.3,0.5,3-0.4c0.7-0.9,0.5-2.3-0.4-3c-0.9-0.7-2.3-0.5-3,0.4
			C13.1,3.3,13.3,4.6,14.3,5.3z"/>
		<path id="XMLID_77_" d="M24,21.3c-0.1-0.5-0.6-0.8-1-0.7l-0.4,0.1c-0.6,0.1-1.1-0.1-1.4-0.7l-2.6-5.3c-0.3,0.6-0.9,0.9-1.5,0.9
			l2.5,5.1c0.5,1,1.5,1.6,2.6,1.6c0.4,0,0.7-0.1,1.1-0.2C23.8,22.2,24.1,21.8,24,21.3z"/>
		<path id="XMLID_78_" d="M15.5,10.7c-0.2,0.1-0.3,0.3-0.4,0.5l2.1,1l-0.5-1.1C16.5,10.7,16,10.5,15.5,10.7z"/>
		<path id="XMLID_79_" d="M17.9,14.4c0.2-0.4,0-1-0.4-1.2l-3.7-1.8l-0.1-4.6c0.5,3,0.4,2.1,0.7,4l0,0c0.2-0.4,0.4-0.7,0.8-0.9
			c0.1-0.1,0.3-0.1,0.4-0.1c-0.7-2.8-0.7-3.3-1.4-3.8l-0.6-0.5c-0.8-0.6-2-0.5-2.6,0.4L7.1,11C7,11.1,7,11.2,6.9,11.3c0,0,0,0,0,0
			l0,0L4.1,17l-3.7,3.2c-0.5,0.5-0.6,1.3-0.1,1.8c0.5,0.5,1.3,0.6,1.8,0.1L6,18.8c0.1-0.1,0.2-0.2,0.3-0.4l2.3-4.6l2.7,2.4L10,20.9
			c-0.2,0.7,0.2,1.4,0.9,1.6c0.7,0.2,1.4-0.2,1.6-0.9l1.5-5.5c0.1-0.5,0-1-0.4-1.3c-1.5-1.3-1.1-1-2.5-2.1c-0.1-0.2-0.1-0.5-0.1-0.7
			l0.8-5.2l0.1,5.1c0,0.3,0.2,0.7,0.5,0.8l4.2,2C17.1,15,17.6,14.8,17.9,14.4z"/>
	</g>
</g>
<g id="table_tennis" class="st6">
	<g id="XMLID_423_" class="st8">
		<path id="XMLID_424_" d="M11.5,8.7C11.6,8.7,11.6,8.7,11.5,8.7L11.5,8.7L11.5,8.7z"/>
		<path id="XMLID_425_" d="M13.6,4.8c1.1-0.1,1.9-1,1.8-2.1c-0.1-1.1-1-1.9-2.1-1.8c-1.1,0.1-1.9,1-1.8,2.1
			C11.6,4,12.6,4.8,13.6,4.8z"/>
		<path id="XMLID_426_" d="M17.7,22.3c0.2,0.5,0.7,0.8,1.2,0.8c0.2,0,0.4,0,0.6-0.1c0.7-0.3,0.9-1.1,0.6-1.8l-2.7-5.7h-2.9
			L17.7,22.3z"/>
		<path id="XMLID_427_" d="M6.7,21.1c-0.4,0.6-0.2,1.4,0.4,1.8c0.2,0.1,0.5,0.2,0.7,0.2c0.4,0,0.9-0.2,1.1-0.6l4.3-6.9h-3.1
			L6.7,21.1z"/>
		<path id="XMLID_428_" d="M22.9,12.5H5.6c-0.6,0-1.1,0.5-1.1,1.1c0,0.6,0.5,1.1,1.1,1.1h17.3c0.6,0,1.1-0.5,1.1-1.1
			C24,13,23.5,12.5,22.9,12.5z"/>
		<path id="XMLID_429_" d="M11.9,10.3c0-0.5-0.4-0.9-0.9-0.9c-0.5,0-0.9,0.4-0.9,0.9s0.4,0.9,0.9,0.9C11.5,11.2,11.9,10.8,11.9,10.3
			z"/>
		<path id="XMLID_430_" d="M22.4,5.8c-0.2-0.6-0.8-0.9-1.4-0.7l-3.3,1.1l-3.3-0.6c0,0-1.2,0-1.4,0.1c-0.7,0.1-2.3,1-4.4,2.1H6.3
			c-0.2,0-0.3,0-0.4,0.1L4.4,7.1c0-0.8-0.5-1.6-1.3-2.1C2,4.5,0.7,4.8,0.2,5.8c-0.5,1,0,2.2,1.2,2.8C2.2,9,3.2,8.9,3.9,8.3L5.2,9
			c0.1,0.5,0.5,0.9,1.1,0.9h2.7c0.1,0,0.3,0,0.4-0.1c0.2-0.7,0.9-1.3,1.7-1.3c1,0,1.8,0.8,1.8,1.8c0,0.5-0.2,0.9-0.5,1.2h3.6L15.6,8
			l2.1,0.4c0.1,0,0.1,0,0.2,0c0.1,0,0.2,0,0.3-0.1l3.5-1.1C22.3,7,22.6,6.4,22.4,5.8z"/>
	</g>
</g>
<g id="olympics" class="st6">
	<path id="XMLID_266_" class="st8" d="M24,9.5C24,7,22,5,19.5,5c-1.6,0-2.9,0.8-3.7,2c-0.8-1.2-2.2-2-3.7-2c-1.6,0-2.9,0.8-3.7,2
		C7.4,5.8,6.1,5,4.5,5C2,5,0,7,0,9.5c0,2.2,1.6,4.1,3.8,4.4c0,0.2,0,0.4,0,0.5c0,2.5,2,4.5,4.5,4.5c1.6,0,2.9-0.8,3.7-2
		c0.8,1.2,2.2,2,3.7,2c2.5,0,4.5-2,4.5-4.5c0-0.2,0-0.4,0-0.5C22.4,13.6,24,11.7,24,9.5z M12,6.7c1.6,0,2.8,1.3,2.8,2.8
		c0,0.2,0,0.4-0.1,0.6C13.6,10.3,12.6,11,12,12c-0.6-0.9-1.6-1.6-2.8-1.9c0-0.2-0.1-0.4-0.1-0.6C9.2,7.9,10.4,6.7,12,6.7z M1.7,9.5
		c0-1.6,1.3-2.8,2.8-2.8c1.6,0,2.8,1.3,2.8,2.8c0,0.2,0,0.4-0.1,0.6c-1.3,0.3-2.4,1.1-3,2.2C2.8,12.2,1.7,11,1.7,9.5z M8.3,17.3
		c-1.6,0-2.8-1.3-2.8-2.8c0-0.2,0-0.4,0.1-0.6C6.6,13.7,7.6,13,8.3,12c0.6,0.9,1.6,1.6,2.8,1.9c0,0.2,0.1,0.4,0.1,0.6
		C11.1,16.1,9.8,17.3,8.3,17.3z M15.7,17.3c-1.6,0-2.8-1.3-2.8-2.8c0-0.2,0-0.4,0.1-0.6c1.2-0.3,2.1-0.9,2.8-1.9
		c0.6,0.9,1.6,1.6,2.8,1.9c0,0.2,0.1,0.4,0.1,0.6C18.6,16.1,17.3,17.3,15.7,17.3z M19.7,12.3c-0.6-1.1-1.7-2-3-2.2
		c0-0.2-0.1-0.4-0.1-0.6c0-1.6,1.3-2.8,2.8-2.8c1.6,0,2.8,1.3,2.8,2.8C22.3,11,21.2,12.2,19.7,12.3z"/>
</g>
<g id="water_polo" class="st6">
	<g id="XMLID_27_" class="st8">
		<path id="XMLID_28_" d="M2.1,18.6c0.6-0.6,1.4-0.9,2.2-1l0-2.7c-0.2-0.1-1.9-1.9-2-2l2.2,1.3c0.2,0.1,0.4,0.2,0.7,0.1l3.6-0.8
			c0.5-0.1,0.8-0.6,0.7-1.1c-0.1-0.5-0.6-0.8-1.1-0.7l-3.3,0.8l-1.9-1.1c1.4,0.4,1.1,0.3,1.7,0.5l2.2-0.5l1.9-1.7
			c0.4-0.3,0.4-0.9,0.1-1.3C8.8,8,8.2,8,7.9,8.3l-2.8,2.5l-1.9-0.6c0,0-0.5-0.1-0.6-0.1H1.8c-1,0-1.8,0.8-1.8,1.8v6.4
			C0.7,18,1.5,18.1,2.1,18.6z"/>
		<path id="XMLID_29_" d="M2.2,9.6c1.2,0,2.1-0.9,2.1-2.1c0-1.2-0.9-2.1-2.1-2.1C1,5.4,0.1,6.3,0.1,7.5C0.1,8.6,1,9.6,2.2,9.6z"/>
		<path id="XMLID_30_" d="M14.2,8.9c-0.4,0.3-0.5,0.9-0.1,1.3l2.5,3.1c0.1,0.1,0.1,0.1,0.2,0.2l1.7,1c0,0.1-0.1,0.3-0.1,0.4l1.1-0.3
			l-1.9,1.1L14.3,15c-0.5-0.1-1,0.2-1.1,0.7c-0.1,0.5,0.2,1,0.7,1.1l3.6,0.8c0.2,0.1,0.5,0,0.7-0.1l2.3-1.3l-1.5,1.5
			c1.1-0.2,2.2,0.1,3.1,0.9c0.2-0.2,0.5-0.3,0.7-0.4v-3.1c0-1-0.8-1.8-1.8-1.8h-0.7c-0.1,0-0.1,0-0.2,0L17.9,12l-2.4-3
			C15.2,8.6,14.6,8.6,14.2,8.9z"/>
		<path id="XMLID_31_" d="M20.5,12.8c1.2,0,2.1-0.9,2.1-2.1c0-1.2-0.9-2.1-2.1-2.1c-1.2,0-2.1,0.9-2.1,2.1
			C18.4,11.8,19.4,12.8,20.5,12.8z"/>
		<path id="XMLID_32_" d="M13.2,6.9c1.2,0,2.1-1,2.1-2.1c0-1.2-1-2.1-2.1-2.1c-1.2,0-2.1,1-2.1,2.1C11,5.9,12,6.9,13.2,6.9z"/>
		<path id="XMLID_33_" d="M23.8,19.5c-0.3-0.3-0.8-0.3-1.1,0c-0.4,0.4-1,0.4-1.4,0c-1-1-2.6-1-3.6,0c-0.4,0.4-1,0.4-1.4,0
			c-0.9-0.9-2.6-0.9-3.6,0c-0.4,0.4-1,0.4-1.4,0c-1-1-2.6-1-3.6,0c-0.3,0.3-1,0.3-1.3,0c-0.9-0.9-2.6-0.9-3.5,0
			c-0.4,0.4-1.1,0.4-1.5,0c-0.3-0.3-0.8-0.3-1.1,0c-0.3,0.3-0.3,0.8,0,1.1c0.5,0.5,1.2,0.8,1.9,0.8c0.7,0,1.4-0.3,1.9-0.8
			c0.3-0.3,1-0.4,1.3,0c0.9,0.9,2.6,1,3.6,0c0.4-0.4,1-0.4,1.4,0c1,1,2.6,1,3.6,0c0.4-0.4,1-0.4,1.4,0c1,1,2.6,1,3.6,0
			c0.4-0.4,1-0.4,1.4,0c1,1,2.6,1,3.6,0C24.1,20.3,24.1,19.8,23.8,19.5z"/>
	</g>
</g>
<g id="alpine_skiing" class="st6">
	<g id="XMLID_546_" class="st8">
		<path id="XMLID_547_" d="M22.5,6.7c1.1-0.6,1.6-1.9,1.1-3.1C23,2.5,21.6,2,20.5,2.6c-1.1,0.6-1.6,1.9-1.1,3.1
			C20,6.8,21.4,7.3,22.5,6.7z"/>
		<path id="XMLID_548_" d="M16.2,9.7c-0.2,0.9-0.1,1.7,0.8,2c0,0,4.1,1.1,4.1,1.1l0,0c0.7,0.2,1.4-0.2,1.5-0.9
			c0.2-0.7-0.2-1.4-0.9-1.5c0,0,0,0,0,0l-2.1-0.6l-0.8-0.6C19.1,8,19,8.4,19.3,7.3c0.1-0.6-0.3-1.3-0.6-1.8c-0.5-1-1.7-1.4-2.7-0.9
			l-1.4,0.7l2.2,1.5c-0.1,0.2-0.2,0.8-0.2,1L6.9,1.2c-0.4-0.3-1-0.2-1.3,0.3c-0.3,0.4-0.2,1,0.3,1.3L16.2,9.7z"/>
		<path id="XMLID_549_" d="M23.9,20.5c-0.3-0.4-0.8-0.6-1.3-0.3L21.3,21l-8.4-2.9l4-3.4c0.8-0.6,0.7-1.8-0.1-2.4l-2.2-1.6l0.8-0.4
			l0.1,0l-4.6-3.1l0,0C10,7.5,9.5,8.3,9.4,9.1c-0.2,1,0.2,1.8,1.2,2.5l2.8,2.1l-3.9,3.3l-8.3-2.9c-0.5-0.2-1,0.1-1.2,0.6
			c-0.2,0.5,0.1,1,0.6,1.2l20.5,7.1c0.1,0,0.2,0.1,0.3,0.1c0.2,0,0.3,0,0.5-0.1l1.6-1C24,21.5,24.1,21,23.9,20.5z"/>
	</g>
</g>
<g id="Lager_28" class="st6">
	<g id="XMLID_472_" class="st8">
		<path id="XMLID_473_" d="M20.6,3.6c0.8-0.8,0.9-2.2,0-3c-0.8-0.8-2.2-0.9-3,0c-0.8,0.8-0.9,2.2,0,3C18.5,4.4,19.8,4.5,20.6,3.6z"
			/>
		<path id="XMLID_474_" d="M23,22c-0.2-0.5-0.8-0.7-1.2-0.5c-0.9,0.4-1.9,1-3.3,0.4l-2.3-0.9l1.4-5.1c0.1-0.5,0-0.9-0.3-1.3
			l-2.9-3.2l1.9-1.9l0.3,1c0.1,0.4,0.4,0.7,0.8,0.8l3.7,1.1c0.6,0.2,1.2-0.2,1.4-0.8c0.2-0.6-0.2-1.2-0.8-1.4l-3.1-0.9l-0.5-1.5
			C18.7,7.1,18.7,6,18,5.3l-0.5-0.6c-0.2-0.3-0.7-0.5-0.9-0.5l-4.5-1.2c-0.4-0.1-0.8,0-1.1,0.3l-2.7,3C7.8,6.8,7.9,7.6,8.3,8
			C8.8,8.4,9.5,8.4,10,7.9l2.2-2.4l1.5,0.4L10.5,9c-0.5,0.5-0.9,1.1-0.7,1.8l1.3,3L5,16.9l-0.1,0c-1.4-0.5-1.8-1.6-2.2-2.5
			c-0.2-0.5-0.8-0.7-1.2-0.5C1,14.2,0.8,14.7,1,15.2c0.4,0.9,1.1,2.6,3.3,3.5l13.6,5c2.2,0.8,3.8-0.1,4.7-0.5C23,23,23.2,22.4,23,22
			z M13.5,15.6c0.2-0.1,0.3-0.2,0.4-0.4l0.7,0.8l-1.1,4.1l-5.1-1.9L13.5,15.6z"/>
	</g>
</g>
<g id="Baseball" class="st6">
	<path class="st8" d="M20.2,6.3c-1.5-2.2-3.8-3.7-6.4-4.2C13.2,2.1,12.6,2,12,2c-4.8,0-9,3.4-9.8,8.2c-1,5.4,2.6,10.6,8,11.6
		c0.6,0.1,1.2,0.2,1.8,0.2c0,0,0,0,0,0c4.8,0,9-3.4,9.8-8.2C22.3,11.2,21.7,8.5,20.2,6.3z M3.2,10.4c0.3-1.7,1.1-3.3,2.3-4.5
		c0.2,0.3,0.5,0.5,0.7,0.8L5.7,7.1c-0.2,0.2-0.2,0.5,0,0.7C5.8,7.9,5.9,7.9,6,7.9c0.1,0,0.3,0,0.4-0.1l0.3-0.3
		c0.2,0.3,0.3,0.6,0.5,1L6.5,8.7C6.3,8.9,6.2,9.2,6.3,9.4c0.1,0.2,0.3,0.3,0.5,0.3c0.1,0,0.1,0,0.2,0l0.5-0.2
		c0.1,0.3,0.2,0.7,0.2,1.1l-0.5,0c-0.3,0-0.5,0.3-0.5,0.6c0,0.3,0.2,0.5,0.5,0.5c0,0,0,0,0.1,0l0.5,0c0,0.3,0,0.7,0,1l-0.5,0
		c-0.3,0-0.5,0.2-0.6,0.5c0,0.3,0.2,0.5,0.5,0.6l0.5,0c0,0,0,0,0,0.1c-0.1,0.3-0.1,0.7-0.2,1l-0.5-0.2c-0.3-0.1-0.6,0-0.7,0.3
		c-0.1,0.3,0,0.6,0.3,0.7l0.6,0.2c-0.1,0.3-0.3,0.6-0.5,1l-0.3-0.2c-0.2-0.2-0.5-0.2-0.7,0c-0.2,0.2-0.2,0.5,0,0.7l0.4,0.4
		c-0.2,0.3-0.4,0.5-0.6,0.7C3.6,16.1,2.6,13.3,3.2,10.4z M12,21c-0.5,0-1.1,0-1.6-0.1c-1.6-0.3-3.1-1-4.2-2c0.2-0.2,0.4-0.5,0.6-0.7
		l0.4,0.3c0.1,0.1,0.2,0.1,0.4,0.1c0.1,0,0.3-0.1,0.4-0.2c0.2-0.2,0.2-0.5,0-0.7l-0.5-0.5C7.6,16.8,7.8,16.4,8,16l0.4,0.2
		c0.1,0,0.1,0,0.2,0c0.2,0,0.4-0.1,0.5-0.3c0.1-0.3,0-0.6-0.3-0.7L8.4,15c0.1-0.4,0.2-0.8,0.3-1.2c0,0,0-0.1,0-0.1l0.6,0.1
		c0,0,0,0,0.1,0c0.3,0,0.5-0.2,0.5-0.5c0-0.3-0.2-0.5-0.5-0.6l-0.6-0.1c0-0.4,0-0.8,0-1.2l0.5-0.1c0.3,0,0.5-0.3,0.5-0.6
		c0-0.3-0.3-0.5-0.6-0.5l-0.6,0.1C8.7,9.9,8.5,9.5,8.4,9.1l0.4-0.2c0.3-0.1,0.4-0.4,0.3-0.7C9,7.9,8.7,7.8,8.4,7.9L8.1,8.1
		C7.9,7.6,7.7,7.2,7.4,6.8l0.5-0.4c0.2-0.2,0.2-0.5,0-0.7c-0.2-0.2-0.5-0.2-0.7,0L6.8,5.9C6.6,5.7,6.4,5.4,6.2,5.2
		C7.7,3.8,9.8,3,12,3c0.5,0,1.1,0,1.6,0.1c1.6,0.3,3,1,4.2,2c-0.2,0.3-0.5,0.5-0.7,0.8l-0.3-0.3c-0.2-0.2-0.5-0.2-0.7,0
		c-0.2,0.2-0.2,0.5,0,0.7l0.5,0.4c-0.3,0.4-0.5,0.8-0.7,1.3l-0.4-0.2c-0.3-0.1-0.6,0-0.7,0.3c-0.1,0.3,0,0.6,0.3,0.7l0.4,0.2
		c-0.1,0.4-0.2,0.9-0.3,1.4l-0.6-0.1c-0.3,0-0.5,0.2-0.6,0.5c0,0.3,0.2,0.5,0.5,0.6l0.5,0.1c0,0.4,0,0.8,0,1.2l-0.6,0.1
		c-0.3,0-0.5,0.3-0.5,0.6c0,0.3,0.2,0.5,0.5,0.5c0,0,0,0,0.1,0l0.6-0.1c0,0,0,0.1,0,0.1c0.1,0.4,0.2,0.8,0.3,1.2l-0.5,0.2
		c-0.3,0.1-0.4,0.4-0.3,0.7c0.1,0.2,0.3,0.3,0.5,0.3c0.1,0,0.1,0,0.2,0l0.4-0.2c0.2,0.4,0.4,0.9,0.7,1.3l-0.5,0.5
		c-0.2,0.2-0.2,0.5,0,0.7c0.1,0.1,0.2,0.2,0.4,0.2c0.1,0,0.3,0,0.4-0.1l0.4-0.3c0.2,0.3,0.4,0.5,0.7,0.8C16.2,20.2,14.2,21,12,21z
		 M20.8,13.6c-0.3,1.8-1.1,3.3-2.3,4.5c-0.2-0.2-0.5-0.5-0.7-0.8l0.4-0.4c0.2-0.2,0.2-0.5,0-0.7c-0.2-0.2-0.5-0.2-0.7,0l-0.3,0.2
		c-0.2-0.3-0.3-0.6-0.5-1l0.6-0.2c0.3-0.1,0.4-0.4,0.3-0.7c-0.1-0.3-0.4-0.4-0.7-0.3l-0.5,0.2c-0.1-0.3-0.2-0.6-0.2-1c0,0,0,0,0-0.1
		l0.5,0c0.3,0,0.5-0.3,0.5-0.6c0-0.3-0.3-0.5-0.6-0.5l-0.5,0c0-0.3,0-0.7,0-1l0.5,0c0,0,0,0,0.1,0c0.3,0,0.5-0.2,0.5-0.5
		c0-0.3-0.2-0.5-0.5-0.6l-0.5,0c0.1-0.4,0.1-0.7,0.2-1.1L17,9.7c0.1,0,0.1,0,0.2,0c0.2,0,0.4-0.1,0.5-0.3c0.1-0.3,0-0.6-0.3-0.7
		l-0.6-0.3c0.1-0.3,0.3-0.7,0.5-1l0.3,0.3c0.1,0.1,0.2,0.1,0.4,0.1c0.1,0,0.3-0.1,0.4-0.2c0.2-0.2,0.2-0.5,0-0.7l-0.4-0.4
		c0.2-0.3,0.4-0.6,0.7-0.8c0.3,0.3,0.6,0.7,0.9,1.1C20.8,8.9,21.3,11.3,20.8,13.6z"/>
</g>
<g id="f1">
	<g>
		<path d="M18.9,4.7c-1.2-0.2-2.4,0-3.5,0.1c-1.2,0.1-2.4,0.3-3.5,0C10.5,4.4,9.6,3.5,9,2.3C8.8,2.8,8.6,3.3,8.5,3.7
			c-1.1,3.1-2.3,6.1-3.4,9.2L2,21.2l1.2,0.4l2.8-7.5c0.5,0.5,1.1,0.9,2,1.1c1.1,0.3,2.4,0.1,3.5,0c1.2-0.1,2.4-0.3,3.5-0.1
			c1.5,0.3,2.5,1.2,3.1,2.5c1.3-3.5,2.6-7.1,3.9-10.6C21.3,5.8,20.3,4.9,18.9,4.7z M19,11c-0.6-0.5-1.2-0.8-2-1
			c-0.3,0.7-0.5,1.4-0.8,2c0.8,0.1,1.4,0.5,2,1c-0.2,0.6-0.5,1.3-0.7,1.9c-0.6-0.5-1.2-0.8-2-1c0.2-0.6,0.5-1.3,0.7-1.9
			c-0.8-0.1-1.5-0.1-2.3-0.1c-0.2,0.6-0.5,1.3-0.7,1.9c-0.8,0.1-1.6,0.2-2.4,0.2c0.2-0.6,0.5-1.3,0.7-1.9c-0.8,0-1.5,0-2.3-0.1
			C9,12.7,8.8,13.4,8.6,14c-0.8-0.1-1.4-0.5-2-1c0.2-0.6,0.5-1.3,0.7-1.9c0.6,0.5,1.2,0.8,2,1c0.3-0.7,0.5-1.4,0.8-2
			c-0.8-0.1-1.4-0.5-2-1c0.3-0.7,0.5-1.4,0.8-2c0.6,0.5,1.2,0.8,2,1c0.2-0.6,0.5-1.3,0.7-1.9c0.8,0.1,1.5,0.1,2.3,0.1
			c-0.2,0.6-0.5,1.3-0.7,1.9c0.8-0.1,1.6-0.2,2.4-0.2C15.7,7.3,16,6.6,16.2,6c0.8,0,1.5,0,2.3,0.1C18.3,6.7,18,7.3,17.8,8
			c0.8,0.1,1.4,0.5,2,1C19.5,9.6,19.3,10.3,19,11z"/>
		<path d="M12.3,10.1c-0.3,0.7-0.5,1.4-0.8,2c0.8-0.1,1.6-0.2,2.4-0.2c0.3-0.7,0.5-1.4,0.8-2C13.9,10,13.1,10.1,12.3,10.1z"/>
		<path d="M12.3,10.1c0.3-0.7,0.5-1.4,0.8-2c-0.8,0-1.5,0-2.3-0.1c-0.3,0.7-0.5,1.4-0.8,2C10.8,10.2,11.6,10.2,12.3,10.1z"/>
		<path d="M15.5,7.9c-0.3,0.7-0.5,1.4-0.8,2c0.8,0,1.5,0,2.3,0.1c0.3-0.7,0.5-1.4,0.8-2C17,7.8,16.3,7.8,15.5,7.9z"/>
	</g>
</g>
</svg>
